…
The package makes available the following datasets:

-   [`presidential_precincts_2016`](http://dx.doi.org/10.7910/DVN/LYWX3D)
-   [`senate_precincts_2016`](http://dx.doi.org/10.7910/DVN/NLTQAD)
-   [`house_precincts_2016`](http://dx.doi.org/10.7910/DVN/PSKDUJ)
-   [`state_precincts_2016`](http://dx.doi.org/10.7910/DVN/GSZG1O)
-   [`local_precincts_2016`](http://dx.doi.org/10.7910/DVN/Q8OHRS)
-   `state_ids`
-   `county_ids`
-   `county_sub_ids`

``` r
presidential_precincts_2016 %>%
  select(state_postal, county_fips, precinct, candidate, party, votes)
#> # A tibble: 505,862 x 6
#>    state_postal county_fips precinct                candidate party  votes
#>    <chr>              <dbl> <chr>                   <chr>     <chr>  <dbl>
#>  1 AL                  1001 10.JONES.COMMUNITY.CTR  Alabama … demo…  119  
#>  2 AL                  1001 10.JONES.COMMUNITY.CTR  Alabama … repu…  120  
#>  3 AL                  1001 10.JONES.COMMUNITY.CTR  Over Vot… <NA>     0  
#>  4 AL                  1001 10.JONES.COMMUNITY.CTR  Under Vo… <NA>   119  
#>  5 AL                  1001 100.TRINITY.METHODIST   Alabama … demo…  127  
#>  6 AL                  1001 100.TRINITY.METHODIST   Alabama … repu…  759  
#>  7 AL                  1001 100.TRINITY.METHODIST   Over Vot… <NA>     0  
#>  8 AL                  1001 100.TRINITY.METHODIST   Under Vo… <NA>  1299  
#>  9 AL                  1001 110.CENTRAL.AL.ELECTRIC Alabama … demo…  173  
#> 10 AL                  1001 110.CENTRAL.AL.ELECTRIC Alabama … repu…   62.0
#> # ... with 505,852 more rows
```

``` r
senate_precincts_2016 %>%
  select(state_postal, county_fips, precinct, candidate, party, votes)
#> # A tibble: 257,278 x 6
#>    state_postal county_fips precinct                candidate party  votes
#>    <chr>              <dbl> <chr>                   <chr>     <chr>  <dbl>
#>  1 AL                  1001 10.JONES.COMMUNITY.CTR  Alabama … demo…  119  
#>  2 AL                  1001 10.JONES.COMMUNITY.CTR  Alabama … repu…  120  
#>  3 AL                  1001 10.JONES.COMMUNITY.CTR  Over Vot… <NA>     0  
#>  4 AL                  1001 10.JONES.COMMUNITY.CTR  Under Vo… <NA>   119  
#>  5 AL                  1001 100.TRINITY.METHODIST   Alabama … demo…  127  
#>  6 AL                  1001 100.TRINITY.METHODIST   Alabama … repu…  759  
#>  7 AL                  1001 100.TRINITY.METHODIST   Over Vot… <NA>     0  
#>  8 AL                  1001 100.TRINITY.METHODIST   Under Vo… <NA>  1299  
#>  9 AL                  1001 110.CENTRAL.AL.ELECTRIC Alabama … demo…  173  
#> 10 AL                  1001 110.CENTRAL.AL.ELECTRIC Alabama … repu…   62.0
#> # ... with 257,268 more rows
```

``` r
house_precincts_2016 %>%
  select(state_postal, county_fips, precinct, candidate, party, votes)
#> # A tibble: 179,316 x 6
#>    state_postal county_fips precinct                candidate party  votes
#>    <chr>              <dbl> <chr>                   <chr>     <chr>  <dbl>
#>  1 AL                  1001 10.JONES.COMMUNITY.CTR  Alabama … demo…  119  
#>  2 AL                  1001 10.JONES.COMMUNITY.CTR  Alabama … repu…  120  
#>  3 AL                  1001 10.JONES.COMMUNITY.CTR  Over Vot… <NA>     0  
#>  4 AL                  1001 10.JONES.COMMUNITY.CTR  Under Vo… <NA>   119  
#>  5 AL                  1001 100.TRINITY.METHODIST   Alabama … demo…  127  
#>  6 AL                  1001 100.TRINITY.METHODIST   Alabama … repu…  759  
#>  7 AL                  1001 100.TRINITY.METHODIST   Over Vot… <NA>     0  
#>  8 AL                  1001 100.TRINITY.METHODIST   Under Vo… <NA>  1299  
#>  9 AL                  1001 110.CENTRAL.AL.ELECTRIC Alabama … demo…  173  
#> 10 AL                  1001 110.CENTRAL.AL.ELECTRIC Alabama … repu…   62.0
#> # ... with 179,306 more rows
```

``` r
state_precincts_2016 %>%
  select(state_postal, county_fips, precinct, candidate, party, votes)
#> # A tibble: 1,619,465 x 6
#>    state_postal county_fips precinct                candidate party  votes
#>    <chr>              <dbl> <chr>                   <chr>     <chr>  <dbl>
#>  1 AL                  1001 10.JONES.COMMUNITY.CTR  Alabama … demo…  119  
#>  2 AL                  1001 10.JONES.COMMUNITY.CTR  Alabama … repu…  120  
#>  3 AL                  1001 10.JONES.COMMUNITY.CTR  Over Vot… <NA>     0  
#>  4 AL                  1001 10.JONES.COMMUNITY.CTR  Under Vo… <NA>   119  
#>  5 AL                  1001 100.TRINITY.METHODIST   Alabama … demo…  127  
#>  6 AL                  1001 100.TRINITY.METHODIST   Alabama … repu…  759  
#>  7 AL                  1001 100.TRINITY.METHODIST   Over Vot… <NA>     0  
#>  8 AL                  1001 100.TRINITY.METHODIST   Under Vo… <NA>  1299  
#>  9 AL                  1001 110.CENTRAL.AL.ELECTRIC Alabama … demo…  173  
#> 10 AL                  1001 110.CENTRAL.AL.ELECTRIC Alabama … repu…   62.0
#> # ... with 1,619,455 more rows
```

``` r
local_precincts_2016 %>%
  select(state_postal, county_fips, precinct, candidate, party, votes)
#> # A tibble: 497,659 x 6
#>    state_postal county_fips precinct                candidate party  votes
#>    <chr>              <dbl> <chr>                   <chr>     <chr>  <dbl>
#>  1 AL                  1001 10.JONES.COMMUNITY.CTR  Alabama … demo…  119  
#>  2 AL                  1001 10.JONES.COMMUNITY.CTR  Alabama … repu…  120  
#>  3 AL                  1001 10.JONES.COMMUNITY.CTR  Over Vot… <NA>     0  
#>  4 AL                  1001 10.JONES.COMMUNITY.CTR  Under Vo… <NA>   119  
#>  5 AL                  1001 100.TRINITY.METHODIST   Alabama … demo…  127  
#>  6 AL                  1001 100.TRINITY.METHODIST   Alabama … repu…  759  
#>  7 AL                  1001 100.TRINITY.METHODIST   Over Vot… <NA>     0  
#>  8 AL                  1001 100.TRINITY.METHODIST   Under Vo… <NA>  1299  
#>  9 AL                  1001 110.CENTRAL.AL.ELECTRIC Alabama … demo…  173  
#> 10 AL                  1001 110.CENTRAL.AL.ELECTRIC Alabama … repu…   62.0
#> # ... with 497,649 more rows
```
…
